<svg width="51" height="51" viewBox="0 0 51 51" fill="none" xmlns="http://www.w3.org/2000/svg">
<circle cx="25.5" cy="25.5" r="24.5" fill="white" stroke="#DBE0E5" stroke-width="2"/>
<path d="M23.8125 24.626H25.1133C25.7695 24.6201 26.2881 24.4502 26.6689 24.1162C27.0557 23.7822 27.249 23.2988 27.249 22.666C27.249 22.0566 27.0879 21.585 26.7656 21.251C26.4492 20.9111 25.9629 20.7412 25.3066 20.7412C24.7324 20.7412 24.2607 20.9082 23.8916 21.2422C23.5225 21.5703 23.3379 22.001 23.3379 22.5342H21.2021C21.2021 21.8779 21.375 21.2803 21.7207 20.7412C22.0723 20.2021 22.5586 19.7832 23.1797 19.4844C23.8066 19.1797 24.5068 19.0273 25.2803 19.0273C26.5576 19.0273 27.5596 19.3496 28.2861 19.9941C29.0186 20.6328 29.3848 21.5234 29.3848 22.666C29.3848 23.2402 29.2002 23.7822 28.8311 24.292C28.4678 24.7959 27.9961 25.1768 27.416 25.4346C28.1191 25.6748 28.6523 26.0527 29.0156 26.5684C29.3848 27.084 29.5693 27.6992 29.5693 28.4141C29.5693 29.5625 29.1738 30.4766 28.3828 31.1562C27.5977 31.8359 26.5635 32.1758 25.2803 32.1758C24.0498 32.1758 23.042 31.8477 22.2568 31.1914C21.4717 30.5352 21.0791 29.6621 21.0791 28.5723H23.2148C23.2148 29.1348 23.4023 29.5918 23.7773 29.9434C24.1582 30.2949 24.668 30.4707 25.3066 30.4707C25.9688 30.4707 26.4902 30.2949 26.8711 29.9434C27.252 29.5918 27.4424 29.082 27.4424 28.4141C27.4424 27.7402 27.2432 27.2217 26.8447 26.8584C26.4463 26.4951 25.8545 26.3135 25.0693 26.3135H23.8125V24.626Z" fill="#808080"/>
</svg>
