<svg width="17" height="17" viewBox="0 0 17 17" fill="none" xmlns="http://www.w3.org/2000/svg">
<path d="M1 13.375V16.125H3.75L12 7.875L9.25 5.125L1 13.375Z" stroke="#2755BD" stroke-width="1.7" stroke-linecap="round" stroke-linejoin="round"/>
<path d="M11.083 3.29167L13.833 6.04167L16.1247 3.75L13.3747 1L11.083 3.29167Z" stroke="#2755BD" stroke-width="1.7" stroke-linecap="round" stroke-linejoin="round"/>
</svg>
