<svg width="29" height="29" viewBox="0 0 29 29" fill="none" xmlns="http://www.w3.org/2000/svg">
<circle cx="14.5" cy="14.5" r="14" stroke="#DBE0E6"/>
<path d="M9 18.75V21H11.25L18 14.25L15.75 12L9 18.75Z" stroke="#C4CBD3" stroke-width="1.7" stroke-linecap="round" stroke-linejoin="round"/>
<path d="M17.25 10.5L19.5 12.75L21.375 10.875L19.125 8.625L17.25 10.5Z" stroke="#C4CBD3" stroke-width="1.7" stroke-linecap="round" stroke-linejoin="round"/>
</svg>
