<svg width="152" height="48" viewBox="0 0 152 48" fill="none" xmlns="http://www.w3.org/2000/svg">
<path d="M72.8452 35.4599H86.7636V42.2027H66.3163C64.8631 42.2027 63.6188 41.1611 63.3631 39.7306L62.9816 37.5965C62.7886 36.5165 63.0476 35.4046 63.6981 34.5211L76.086 17.6959V17.4564H63.4297V10.7478H81.5358C83.4748 10.7478 85.1346 12.1385 85.474 14.0476L85.4914 14.1454C85.8247 16.0203 85.3798 17.95 84.2593 19.4897L72.811 35.2203V35.4599H72.8452Z" fill="#212225"/>
<path d="M132.476 42.168H127.118C125.461 42.168 124.118 40.8249 124.118 39.168V3C124.118 1.34314 125.461 0 127.118 0H132.476V42.168Z" fill="#212225"/>
<path d="M140.694 11.4853L133.034 24.5808H133V24.8204L140.593 39.8105C141.104 40.8192 142.139 41.4549 143.269 41.4549H151.353L141.938 24.7177V24.4782L151.149 10H143.283C142.218 10 141.232 10.5654 140.694 11.4853Z" fill="#212225"/>
<path d="M8.35789 42.168H3C1.34314 42.168 0 40.8249 0 39.168V3C0 1.34314 1.34315 0 3 0H8.35789V42.168ZM8.56257 25.3282L16.2222 12.2327C16.7603 11.3128 17.746 10.7474 18.8118 10.7474H26.677L17.4663 25.2255V25.4651L26.8817 42.2023H18.7979C17.6672 42.2023 16.6326 41.5666 16.1216 40.5579L8.52846 25.5678V25.3282H8.56257Z" fill="#212225"/>
<path d="M58.9437 27.8669C58.9518 28.6753 58.7031 29.3136 58.1191 29.8913C57.5781 30.4507 56.8901 30.7428 56.1097 30.7189L38.7293 30.7396C38.6821 30.048 38.6315 28.272 38.617 26.8775C38.6063 25.85 39.4185 25.076 40.446 25.0767C44.2688 25.0793 52.7166 25.0559 52.7166 25.0559C51.7929 22.1754 49.9131 20.1827 47.1083 19.09C44.6776 18.1431 42.2892 18.1929 39.9239 19.1969C37.5587 20.2009 35.9357 21.8792 35.0121 24.2501C34.0884 26.621 34.1795 28.967 35.2422 31.3065C36.3049 33.646 38.0419 35.268 40.4727 36.215C43.3086 37.3198 46.041 37.1239 48.6506 35.5849C49.4233 36.9991 51.5199 40.3747 51.6218 40.4884C47.4004 42.9399 42.974 43.246 38.3929 41.4613C34.4975 39.9437 31.6529 37.2951 29.9644 33.5215C28.2447 29.7358 28.1406 25.9492 29.6208 22.1498C31.101 18.3503 33.7511 15.6017 37.5667 14.0074C41.3823 12.4131 45.2497 12.3444 49.1451 13.862C52.0433 14.991 54.3725 16.8437 56.1756 19.4016C58.0099 21.9717 58.9262 24.7793 58.9437 27.8669Z" fill="#2755BD" stroke="#2755BD" stroke-width="0.5"/>
<path d="M120.531 27.4641C120.539 28.2725 120.29 28.9108 119.706 29.4885C119.165 30.0479 118.477 30.34 117.697 30.3161L100.316 30.3367C100.269 29.6452 100.218 27.8692 100.204 26.4746C100.193 25.4472 101.005 24.6732 102.033 24.6739C105.856 24.6765 114.303 24.653 114.303 24.653C113.38 21.7725 111.5 19.7799 108.695 18.6872C106.264 17.7402 103.876 17.79 101.511 18.7941C99.1455 19.7981 97.5226 21.4764 96.5989 23.8473C95.6753 26.2181 95.7663 28.5642 96.829 30.9037C97.8917 33.2432 99.6288 34.8652 102.06 35.8121C104.566 36.7887 106.992 36.7491 109.323 35.6639C109.836 35.4255 110.463 35.5913 110.748 36.0792C111.684 37.6802 113.125 39.9918 113.209 40.0856C108.987 42.5371 104.561 42.8431 99.9798 41.0585C96.0844 39.5409 93.2397 36.8923 91.5512 33.1187C89.8316 29.3329 89.7274 25.5464 91.2076 21.7469C92.6878 17.9475 95.3379 15.1989 99.1535 13.6046C102.969 12.0103 106.837 11.9415 110.732 13.4591C113.63 14.5882 115.959 16.4409 117.762 18.9988C119.597 21.5689 120.513 24.3765 120.531 27.4641Z" fill="#2755BD" stroke="#2755BD" stroke-width="0.5"/>
</svg>
