<svg width="42" height="42" viewBox="0 0 42 42" fill="none" xmlns="http://www.w3.org/2000/svg">
<circle cx="21" cy="21" r="21" fill="#0065C1"/>
<ellipse cx="21.4468" cy="15.6383" rx="3.57447" ry="4.02128" stroke="white" stroke-width="1.7"/>
<path d="M28.5957 26.8085C28.5957 29.9362 25.0213 29.0425 21.4468 29.0425C17.8723 29.0425 14.2979 29.9362 14.2979 26.8085C14.2979 25.0213 17.4985 22.7872 21.4468 22.7872C25.395 22.7872 28.5957 25.0213 28.5957 26.8085Z" stroke="white" stroke-width="1.7"/>
</svg>
