<svg width="29" height="29" viewBox="0 0 29 29" fill="none" xmlns="http://www.w3.org/2000/svg">
<path d="M24.375 15.5H10.625M10.625 15.5L14.5 12M10.625 15.5L14.5 19" stroke="#4B4B4B" stroke-width="2.05417" stroke-linecap="round" stroke-linejoin="round"/>
<path d="M3.625 23.5417H25.375" stroke="#4B4B4B" stroke-width="2.05417" stroke-linecap="round" stroke-linejoin="round"/>
<path d="M3.625 7.45825H25.375" stroke="#4B4B4B" stroke-width="2.05417" stroke-linecap="round" stroke-linejoin="round"/>
</svg>
