<svg width="20" height="20" viewBox="0 0 20 20" fill="none" xmlns="http://www.w3.org/2000/svg">
<rect x="1" y="1" width="18" height="18" rx="3" stroke="#1BBAEC" stroke-width="2" stroke-linecap="round" stroke-linejoin="round"/>
<path d="M5.50078 12.7V14.5" stroke="#1BBAEC" stroke-width="2" stroke-linecap="round" stroke-linejoin="round"/>
<path d="M10.0008 9.1001V14.5001" stroke="#1BBAEC" stroke-width="2" stroke-linecap="round" stroke-linejoin="round"/>
<path d="M14.5008 5.5V14.5" stroke="#1BBAEC" stroke-width="2" stroke-linecap="round" stroke-linejoin="round"/>
</svg>
