<svg width="24" height="24" viewBox="0 0 24 24" fill="none" xmlns="http://www.w3.org/2000/svg">
<ellipse cx="12" cy="6.5" rx="4" ry="4.5" stroke="#242424" stroke-width="1.7"/>
<path d="M20 19C20 22.5 16 21.5 12 21.5C8 21.5 4 22.5 4 19C4 17 7.58172 14.5 12 14.5C16.4183 14.5 20 17 20 19Z" stroke="#242424" stroke-width="1.7"/>
</svg>
